%YAML 1.1
%TAG !u! tag:unity3d.com,2011:
--- !u!74 &7400000
AnimationClip:
  m_ObjectHideFlags: 0
  m_CorrespondingSourceObject: {fileID: 0}
  m_PrefabInstance: {fileID: 0}
  m_PrefabAsset: {fileID: 0}
  m_Name: CatIdle
  serializedVersion: 6
  m_Legacy: 0
  m_Compressed: 0
  m_UseHighQualityCurve: 1
  m_RotationCurves: []
  m_CompressedRotationCurves: []
  m_EulerCurves: []
  m_PositionCurves: []
  m_ScaleCurves: []
  m_FloatCurves: []
  m_PPtrCurves:
  - curve:
    - time: 0
      value: {fileID: 21300000, guid: d4bb2848d84d3834e9746c6338e96e16, type: 3}
    - time: 0.25
      value: {fileID: 21300000, guid: c697c9104a8180147b52308cc821eba3, type: 3}
    - time: 0.5
      value: {fileID: 21300000, guid: 2a864551900f42e4a966e5c2a8f6e756, type: 3}
    - time: 0.75
      value: {fileID: 21300000, guid: 229e20f7ddc2b7246b4768f7aea3830d, type: 3}
    - time: 1
      value: {fileID: 21300000, guid: 317554d54e5510945adaf85d8c08164b, type: 3}
    - time: 1.25
      value: {fileID: 21300000, guid: ea1bd69ff66cb914eb4d0a4e0397b06b, type: 3}
    - time: 1.5
      value: {fileID: 21300000, guid: 99f0ad1977c901d4fb424d59766a857b, type: 3}
    attribute: m_Sprite
    path: 
    classID: 212
    script: {fileID: 0}
  m_SampleRate: 4
  m_WrapMode: 0
  m_Bounds:
    m_Center: {x: 0, y: 0, z: 0}
    m_Extent: {x: 0, y: 0, z: 0}
  m_ClipBindingConstant:
    genericBindings:
    - serializedVersion: 2
      path: 0
      attribute: 0
      script: {fileID: 0}
      typeID: 212
      customType: 23
      isPPtrCurve: 1
    pptrCurveMapping:
    - {fileID: 21300000, guid: d4bb2848d84d3834e9746c6338e96e16, type: 3}
    - {fileID: 21300000, guid: c697c9104a8180147b52308cc821eba3, type: 3}
    - {fileID: 21300000, guid: 2a864551900f42e4a966e5c2a8f6e756, type: 3}
    - {fileID: 21300000, guid: 229e20f7ddc2b7246b4768f7aea3830d, type: 3}
    - {fileID: 21300000, guid: 317554d54e5510945adaf85d8c08164b, type: 3}
    - {fileID: 21300000, guid: ea1bd69ff66cb914eb4d0a4e0397b06b, type: 3}
    - {fileID: 21300000, guid: 99f0ad1977c901d4fb424d59766a857b, type: 3}
  m_AnimationClipSettings:
    serializedVersion: 2
    m_AdditiveReferencePoseClip: {fileID: 0}
    m_AdditiveReferencePoseTime: 0
    m_StartTime: 0
    m_StopTime: 1.75
    m_OrientationOffsetY: 0
    m_Level: 0
    m_CycleOffset: 0
    m_HasAdditiveReferencePose: 0
    m_LoopTime: 1
    m_LoopBlend: 0
    m_LoopBlendOrientation: 0
    m_LoopBlendPositionY: 0
    m_LoopBlendPositionXZ: 0
    m_KeepOriginalOrientation: 0
    m_KeepOriginalPositionY: 1
    m_KeepOriginalPositionXZ: 0
    m_HeightFromFeet: 0
    m_Mirror: 0
  m_EditorCurves: []
  m_EulerEditorCurves: []
  m_HasGenericRootTransform: 0
  m_HasMotionFloatCurves: 0
  m_Events: []
