%YAML 1.1
%TAG !u! tag:unity3d.com,2011:
--- !u!114 &11400000
MonoBehaviour:
  m_ObjectHideFlags: 0
  m_CorrespondingSourceObject: {fileID: 0}
  m_PrefabInstance: {fileID: 0}
  m_PrefabAsset: {fileID: 0}
  m_GameObject: {fileID: 0}
  m_Enabled: 1
  m_EditorHideFlags: 0
  m_Script: {fileID: 11500000, guid: b81e91dfc4eaeff489a80d02c7f24929, type: 3}
  m_Name: Chat_5
  m_EditorClassIdentifier: 
  InitalFishDailouge:
  - Nice new picture of the 5th avenue.
  - Nice new picture.
  fishDialogues:
  - You are talking about me with your caption right?
  - Hm... How do you feel about meeting today?
  - Why not? We have been talking for days now and I have trusted you with my secrets.
  - Also, I was always there for you, when noone else was.
  - I just would like to chill out with someone and create better moments, to remember.
  - I dont know.. I thought you were different...
  - Yes i think so too! Also, i really would like to see you.
  - To be honest with you...
  - You really look amazing in the pictures even though you look mad. :P
  - Like.. you really are the type I like.
  - I would love to see you. Maybe we could have some fun.
  - Am I still a stranger though?
  - Whats up? Did I say something wrong?
  - You are just my kind of type, i guess.
  - Someone I would like to get to know better.
  - You are very welcome, its just the truth in my eyes :)
  - You will get to know me when we meet up.
  - I thought personality is more important than looks.
  - You can see my face on my profile picture.
  - Why do you ask so many questions??
  - Let's just meet up and you will see.
  - You are seriously so weird. Its annoying to talk to you to be honest.
  - Let's just meet up and you can get to know me :)
  - So where are you now? Lets meet up where you posted the pic yesterday.
  - Naw :c Please hurry up.
  - Yay! I am waiting for you sweetheart.
  - Can't wait to feel you.
  - see you*
  - Im so happy to finally meet you little kitten.
  - Come here pls. Now. :c
  - Faster. Come on now. I can wait any longer.
  - Thank you.
  - What?? Are you serious?? You are such a ******* WTF ??
  catDialogues:
  - catDialogue: Thanks.
    impactValue: 0
  - catDialogue: I know right.
    impactValue: 0
  - catDialogue: No it was a random quote.
    impactValue: 0
  - catDialogue: Yes... I am glad that I have someone to talk to right now.
    impactValue: 0.2
  - catDialogue: I dont want to meet you.
    impactValue: -0.4
  - catDialogue: I think talking to someone in person will help.
    impactValue: 0.2
  - catDialogue: Is meeting in person really that important to you?
    impactValue: -0.2
  - catDialogue: I just feel uncomfortable meeting a stranger.
    impactValue: -0.4
  - catDialogue: Uhm... what??
    impactValue: 0
  - catDialogue: What type am I?
    impactValue: 0.2
  - catDialogue: Oh thank you for your honesty and the compliment.
    impactValue: 0.2
  - catDialogue: I still dont know anything about you.
    impactValue: -0.2
  - catDialogue: Its just...
    impactValue: 0
  - catDialogue: Ah alright...
    impactValue: 0
  - catDialogue: You still are a stranger for me thought.
    impactValue: -0.2
  - catDialogue: I think, I would like to get to know you better as well.
    impactValue: 0.2
  - catDialogue: Naw that's so sweet.
    impactValue: 0.2
  - catDialogue: I dont even know your real name nor age or how you really look like.
    impactValue: -0.3
  - catDialogue: Well yea, but i would like to know who i am talking to.
    impactValue: -0.4
  - catDialogue: But is it really you?
    impactValue: -0.4
  - catDialogue: Yea i guess you are right.
    impactValue: 0.7
  - catDialogue: I really dont want to meet you?!
    impactValue: -0.4
  - catDialogue: Okay. :)
    impactValue: 0.5
  - catDialogue: It will take some time to get there.
    impactValue: 0.3
  - catDialogue: I can be there soon.
    impactValue: 0.4
  - catDialogue: Okay..
    impactValue: 0.1
  - catDialogue: Dont worry i will walk there as soon as possible. :)
    impactValue: 0.4
  - catDialogue: Chill I will be on my way soon enough.
    impactValue: 0.1
  - catDialogue: Im on my way in a sec. :) Dont worry.
    impactValue: 0.4
  - catDialogue: Im happy to meet you as well. I will hurry.
    impactValue: 1
  - catDialogue: I actually have something else to do, sry. Bye
    impactValue: -1.5
  - catDialogue: Yea sure whatever, cya.
    impactValue: -1.5
